…
Un buon inizio per esplorare questo package è la sua [*vignette*](https://cran.r-project.org/web/packages/googlesheets/vignettes/basic-usage.html).

Vediamo un po' che combina
--------------------------

La funzione che si connette al mio account drive e mi dice quali files sono disponibili è:

``` r
(my_sheets <- gs_ls()) # Questa funzione ha le parentesi intorno... senza non funziona...
```

    ## # A tibble: 31 x 10
    ##    sheet_title  author perm  version updated             sheet_key ws_feed
    ##    <chr>        <chr>  <chr> <chr>   <dttm>              <chr>     <chr>  
    ##  1 030_dati_st… giova… rw    new     2018-04-18 15:06:59 1VW3BcZO… https:…
    ##  2 Iscritti La… giova… rw    new     2018-04-18 12:14:22 19U_JozM… https:…
    ##  3 "          … "   l… rw    new     2018-03-26 14:06:03 1dzvUxsd… https:…
    ##  4 "          … "   l… rw    new     2018-03-24 14:52:58 1gERmdAi… https:…
    ##  5 "          … "   l… rw    new     2018-03-24 14:52:40 1qB3n55o… https:…
    ##  6 Lista inter… giova… rw    new     2018-03-23 16:24:57 1mhapqjT… https:…
    ##  7 Risposte Bo… elisa… rw    new     2018-03-08 20:05:03 15v3uIyD… https:…
    ##  8 Risposte - … elisa… rw    new     2018-02-23 16:35:13 1GX-DleX… https:…
    ##  9 Foglio di l… giova… rw    new     2018-02-11 11:36:06 1LZdPHI-… https:…
    ## 10 Mailing lis… elisa… rw    new     2018-02-08 09:07:32 1cqE28c1… https:…
    ## # ... with 21 more rows, and 3 more variables: alternate <chr>,
    ## #   self <chr>, alt_key <chr>
…
